{
  "count": 993,
  "pageIndex": 1,
  "pageSize": 1,
  "pageCount": 993,
  "items": [
    {
      "$ref": "http://core.espnuk.org/v2/sports/cricket/leagues/19138/events/1529474/competitions/1529474/details/110"
    }
  ]
}




